Lab3/TA/Lab3Code/lab3.vcd
$date
	Sun Apr 25 17:03:26 2021
$end
$version
	Icarus Verilog
$end
$timescale
	1ps
$end
$scope module testbench $end
$var reg 1 ! clk $end
$var reg 1 " rst_n $end
$var integer 32 # count [31:0] $end
$var integer 32 $ fp_w [31:0] $end
$scope module cpu $end
$var wire 2 % ALUOp [1:0] $end
$var wire 1 & ALUSrc $end
$var wire 1 ' Branch $end
$var wire 1 ( RegWrite $end
$var wire 1 ! clk_i $end
$var wire 32 ) imm_4 [31:0] $end
$var wire 1 " rst_i $end
$var wire 1 * zero $end
$var wire 32 + pc_o [31:0] $end
$var wire 32 , pc_i [31:0] $end
$var wire 1 - overflow $end
$var wire 32 . instr [31:0] $end
$var wire 1 / cout $end
$var wire 32 0 RTdata_o [31:0] $end
$var wire 32 1 RSdata_o [31:0] $end
$var wire 32 2 ALUresult [31:0] $end
$var wire 4 3 ALU_control [3:0] $end
$scope module ALU_Ctrl $end
$var wire 2 4 ALUOp [1:0] $end
$var wire 4 5 instr [3:0] $end
$var reg 4 6 ALU_Ctrl_o [3:0] $end
$upscope $end
$scope module Decoder $end
$var wire 2 7 ALUOp [1:0] $end
$var wire 1 & ALUSrc $end
$var wire 1 ' Branch $end
$var wire 1 ( RegWrite $end
$var wire 32 8 instr_i [31:0] $end
$upscope $end
$scope module IM $end
$var wire 32 9 instr_o [31:0] $end
$var wire 32 : addr_i [31:0] $end
$var integer 32 ; i [31:0] $end
$upscope $end
$scope module PC $end
$var wire 1 ! clk_i $end
$var wire 1 " rst_i $end
$var wire 32 < pc_i [31:0] $end
$var reg 32 = pc_o [31:0] $end
$upscope $end
$scope module PC_plus_4_Adder $end
$var wire 32 > src1_i [31:0] $end
$var wire 32 ? src2_i [31:0] $end
$var wire 32 @ sum_o [31:0] $end
$upscope $end
$scope module RF $end
$var wire 5 A RDaddr_i [4:0] $end
$var wire 5 B RSaddr_i [4:0] $end
$var wire 32 C RSdata_o [31:0] $end
$var wire 5 D RTaddr_i [4:0] $end
$var wire 32 E RTdata_o [31:0] $end
$var wire 1 ( RegWrite_i $end
$var wire 1 ! clk_i $end
$var wire 1 " rst_i $end
$var wire 32 F RDdata_i [31:0] $end
$upscope $end
$scope module alu $end
$var wire 4 G ALU_control [3:0] $end
$var wire 1 " rst_n $end
$var wire 32 H src1 [31:0] $end
$var wire 32 I src2 [31:0] $end
$var reg 1 / cout $end
$var reg 1 - overflow $end
$var reg 32 J result [31:0] $end
$var reg 1 * zero $end
$upscope $end
$upscope $end
$upscope $end
$enddefinitions $end
#0
$dumpvars
bx J
bx I
bx H
bx G
bx F
bx E
bx D
bx C
bx B
bx A
bx @
b100 ?
bx >
bx =
bx <
b100000 ;
bx :
bx 9
bx 8
b10 7
bx 6
bx 5
b10 4
bx 3
bx 2
bx 1
bx 0
x/
bx .
x-
bx ,
bx +
x*
b100 )
1(
0'
0&
b10 %
b10 $
b0 #
0"
0!
$end
#5000
b10 3
b10 6
b10 G
b0 5
b11 A
b1 0
b1 E
b1 I
b1 D
b10 1
b10 C
b10 H
b10 B
b100 ,
b100 <
b100 @
b100010000000110110011 .
b100010000000110110011 8
b100010000000110110011 9
b0 +
b0 :
b0 =
b0 >
b1 #
1!
#10000
0-
0/
1*
b11 2
b11 F
b11 J
0!
1"
#15000
b100 2
b100 F
b100 J
b11 1
b11 C
b11 H
b11 B
b1000 ,
b1000 <
b1000 @
b100011000000110110011 .
b100011000000110110011 8
b100011000000110110011 9
b100 +
b100 :
b100 =
b100 >
b10 #
1!
#20000
0!
#25000
b110 3
b110 6
b110 G
b1000 5
b100 A
b11 2
b11 F
b11 J
b1100 ,
b1100 <
b1100 @
b1000000000100011000001000110011 .
b1000000000100011000001000110011 8
b1000000000100011000001000110011 9
b1000 +
b1000 :
b1000 =
b1000 >
b100 1
b100 C
b100 H
b11 #
1!
#30000
0!
#35000
b10 3
b10 6
b10 G
0*
b0 2
b0 F
b0 J
b0 5
b0 A
b0 0
b0 E
b0 I
b0 D
b0 1
b0 C
b0 H
b0 B
b10000 ,
b10000 <
b10000 @
b0 .
b0 8
b0 9
b1100 +
b1100 :
b1100 =
b1100 >
b100 #
1!
#40000
0!
#45000
b10100 ,
b10100 <
b10100 @
b10000 +
b10000 :
b10000 =
b10000 >
b101 #
1!
#50000
0!
#55000
b11000 ,
b11000 <
b11000 @
b10100 +
b10100 :
b10100 =
b10100 >
b110 #
1!
#60000
0!
#65000
b11100 ,
b11100 <
b11100 @
b11000 +
b11000 :
b11000 =
b11000 >
b111 #
1!
#70000
0!
#75000
b100000 ,
b100000 <
b100000 @
b11100 +
b11100 :
b11100 =
b11100 >
b1000 #
1!
#80000
0!
#85000
b100100 ,
b100100 <
b100100 @
b100000 +
b100000 :
b100000 =
b100000 >
b1001 #
1!
#90000
0!
#95000
b101000 ,
b101000 <
b101000 @
b100100 +
b100100 :
b100100 =
b100100 >
b1010 #
1!
#100000
0!
#105000
b101100 ,
b101100 <
b101100 @
b101000 +
b101000 :
b101000 =
b101000 >
b1011 #
1!
#110000
0!
#115000
b110000 ,
b110000 <
b110000 @
b101100 +
b101100 :
b101100 =
b101100 >
b1100 #
1!
#120000
0!
#125000
b110100 ,
b110100 <
b110100 @
b110000 +
b110000 :
b110000 =
b110000 >
b1101 #
1!
#130000
0!
#135000
b111000 ,
b111000 <
b111000 @
b110100 +
b110100 :
b110100 =
b110100 >
b1110 #
1!
#140000
0!
#145000
b111100 ,
b111100 <
b111100 @
b111000 +
b111000 :
b111000 =
b111000 >
b1111 #
1!
#150000
0!
#155000
b1000000 ,
b1000000 <
b1000000 @
b111100 +
b111100 :
b111100 =
b111100 >
b10000 #
1!
#160000
0!
#165000
b1000100 ,
b1000100 <
b1000100 @
b1000000 +
b1000000 :
b1000000 =
b1000000 >
b10001 #
1!
#170000
0!
#175000
b1001000 ,
b1001000 <
b1001000 @
b1000100 +
b1000100 :
b1000100 =
b1000100 >
b10010 #
1!
#180000
0!
#185000
b1001100 ,
b1001100 <
b1001100 @
b1001000 +
b1001000 :
b1001000 =
b1001000 >
b10011 #
1!
#190000
0!
#195000
b1010000 ,
b1010000 <
b1010000 @
b1001100 +
b1001100 :
b1001100 =
b1001100 >
b10100 #
1!
#200000
0!
#205000
b1010100 ,
b1010100 <
b1010100 @
b1010000 +
b1010000 :
b1010000 =
b1010000 >
b10101 #
1!
#210000
0!
#215000
b1011000 ,
b1011000 <
b1011000 @
b1010100 +
b1010100 :
b1010100 =
b1010100 >
b10110 #
1!
#220000
0!
#225000
b1011100 ,
b1011100 <
b1011100 @
b1011000 +
b1011000 :
b1011000 =
b1011000 >
b10111 #
1!
#230000
0!
#235000
b1100000 ,
b1100000 <
b1100000 @
b1011100 +
b1011100 :
b1011100 =
b1011100 >
b11000 #
1!
#240000
0!
#245000
b1100100 ,
b1100100 <
b1100100 @
b1100000 +
b1100000 :
b1100000 =
b1100000 >
b11001 #
1!
#250000
0!
#255000
b1101000 ,
b1101000 <
b1101000 @
b1100100 +
b1100100 :
b1100100 =
b1100100 >
b11010 #
1!
#260000
0!
#265000
b1101100 ,
b1101100 <
b1101100 @
b1101000 +
b1101000 :
b1101000 =
b1101000 >
b11011 #
1!
#270000
0!
#275000
b1110000 ,
b1110000 <
b1110000 @
b1101100 +
b1101100 :
b1101100 =
b1101100 >
b11100 #
1!
#280000
0!
#285000
b1110100 ,
b1110100 <
b1110100 @
b1110000 +
b1110000 :
b1110000 =
b1110000 >
b11101 #
1!
#290000
0!
#295000
b1111000 ,
b1111000 <
b1111000 @
b1110100 +
b1110100 :
b1110100 =
b1110100 >
b11110 #
1!
#300000
0!
#305000
b1111100 ,
b1111100 <
b1111100 @
b1111000 +
b1111000 :
b1111000 =
b1111000 >
b11111 #
1!
#310000
0!
#315000
b10000000 ,
b10000000 <
b10000000 @
b1111100 +
b1111100 :
b1111100 =
b1111100 >
b100000 #
1!
#320000
0!
#325000
1*
bx 2
bx F
bx J
bx 5
bx A
bx 0
bx E
bx I
bx D
bx 1
bx C
bx H
bx B
b10000100 ,
b10000100 <
b10000100 @
bx .
bx 8
bx 9
b10000000 +
b10000000 :
b10000000 =
b10000000 >
b100001 #
1!
#330000
0!
#335000
b10001000 ,
b10001000 <
b10001000 @
b10000100 +
b10000100 :
b10000100 =
b10000100 >
b100010 #
1!
#340000
0!
#345000
b10001100 ,
b10001100 <
b10001100 @
b10001000 +
b10001000 :
b10001000 =
b10001000 >
b100011 #
1!
#350000
0!
#355000
b10010000 ,
b10010000 <
b10010000 @
b10001100 +
b10001100 :
b10001100 =
b10001100 >
b100100 #
1!
#360000
0!
#365000
b10010100 ,
b10010100 <
b10010100 @
b10010000 +
b10010000 :
b10010000 =
b10010000 >
b100101 #
1!
#370000
0!
#375000
b10011000 ,
b10011000 <
b10011000 @
b10010100 +
b10010100 :
b10010100 =
b10010100 >
b100110 #
1!
#380000
0!
#385000
b10011100 ,
b10011100 <
b10011100 @
b10011000 +
b10011000 :
b10011000 =
b10011000 >
b100111 #
1!
#390000
0!
#395000
b10100000 ,
b10100000 <
b10100000 @
b10011100 +
b10011100 :
b10011100 =
b10011100 >
b101000 #
1!
#400000
0!
#405000
b10100100 ,
b10100100 <
b10100100 @
b10100000 +
b10100000 :
b10100000 =
b10100000 >
b101001 #
1!
#410000
0!
#415000
b10101000 ,
b10101000 <
b10101000 @
b10100100 +
b10100100 :
b10100100 =
b10100100 >
b101010 #
1!
#420000
0!
#425000
b10101100 ,
b10101100 <
b10101100 @
b10101000 +
b10101000 :
b10101000 =
b10101000 >
b101011 #
1!
#430000
0!
#435000
b10110000 ,
b10110000 <
b10110000 @
b10101100 +
b10101100 :
b10101100 =
b10101100 >
b101100 #
1!
#440000
0!
#445000
b10110100 ,
b10110100 <
b10110100 @
b10110000 +
b10110000 :
b10110000 =
b10110000 >
b101101 #
1!
#450000
0!
#455000
b10111000 ,
b10111000 <
b10111000 @
b10110100 +
b10110100 :
b10110100 =
b10110100 >
b101110 #
1!
#460000
0!
#465000
b10111100 ,
b10111100 <
b10111100 @
b10111000 +
b10111000 :
b10111000 =
b10111000 >
b101111 #
1!
#470000
0!
#475000
b11000000 ,
b11000000 <
b11000000 @
b10111100 +
b10111100 :
b10111100 =
b10111100 >
b110000 #
1!
#480000
0!
#485000
b11000100 ,
b11000100 <
b11000100 @
b11000000 +
b11000000 :
b11000000 =
b11000000 >
b110001 #
1!
#490000
0!
#495000
b11001000 ,
b11001000 <
b11001000 @
b11000100 +
b11000100 :
b11000100 =
b11000100 >
b110010 #
1!
#500000
0!
#505000
b11001100 ,
b11001100 <
b11001100 @
b11001000 +
b11001000 :
b11001000 =
b11001000 >
b110011 #
1!
#510000
0!
#515000
b11010000 ,
b11010000 <
b11010000 @
b11001100 +
b11001100 :
b11001100 =
b11001100 >
b110100 #
1!
#520000
0!
#525000
b11010100 ,
b11010100 <
b11010100 @
b11010000 +
b11010000 :
b11010000 =
b11010000 >
b110101 #
1!
#530000
0!
#535000
b11011000 ,
b11011000 <
b11011000 @
b11010100 +
b11010100 :
b11010100 =
b11010100 >
b110110 #
1!
#540000
0!
#545000
b11011100 ,
b11011100 <
b11011100 @
b11011000 +
b11011000 :
b11011000 =
b11011000 >
b110111 #
1!
#550000
0!
#555000
b11100000 ,
b11100000 <
b11100000 @
b11011100 +
b11011100 :
b11011100 =
b11011100 >
b111000 #
1!
#560000
0!
#565000
b11100100 ,
b11100100 <
b11100100 @
b11100000 +
b11100000 :
b11100000 =
b11100000 >
b111001 #
1!
#570000
0!
#575000
b11101000 ,
b11101000 <
b11101000 @
b11100100 +
b11100100 :
b11100100 =
b11100100 >
b111010 #
1!
#580000
0!
#585000
b11101100 ,
b11101100 <
b11101100 @
b11101000 +
b11101000 :
b11101000 =
b11101000 >
b111011 #
1!
#590000
0!
#595000
b11110000 ,
b11110000 <
b11110000 @
b11101100 +
b11101100 :
b11101100 =
b11101100 >
b111100 #
1!
#600000
0!
#605000
b11110100 ,
b11110100 <
b11110100 @
b11110000 +
b11110000 :
b11110000 =
b11110000 >
b111101 #
1!
#610000
0!
#615000
b11111000 ,
b11111000 <
b11111000 @
b11110100 +
b11110100 :
b11110100 =
b11110100 >
b111110 #
1!
#620000
0!
#625000
b11111100 ,
b11111100 <
b11111100 @
b11111000 +
b11111000 :
b11111000 =
b11111000 >
b111111 #
1!
#630000
0!
#635000
b100000000 ,
b100000000 <
b100000000 @
b11111100 +
b11111100 :
b11111100 =
b11111100 >
b1000000 #
1!
#640000
0!
#645000
b100000100 ,
b100000100 <
b100000100 @
b100000000 +
b100000000 :
b100000000 =
b100000000 >
b1000001 #
1!
#650000
0!
#655000
b100001000 ,
b100001000 <
b100001000 @
b100000100 +
b100000100 :
b100000100 =
b100000100 >
b1000010 #
1!
#660000
0!
#665000
b100001100 ,
b100001100 <
b100001100 @
b100001000 +
b100001000 :
b100001000 =
b100001000 >
b1000011 #
1!
#670000
0!
#675000
b100010000 ,
b100010000 <
b100010000 @
b100001100 +
b100001100 :
b100001100 =
b100001100 >
b1000100 #
1!
#680000
0!
#685000
b100010100 ,
b100010100 <
b100010100 @
b100010000 +
b100010000 :
b100010000 =
b100010000 >
b1000101 #
1!
#690000
0!
#695000
b100011000 ,
b100011000 <
b100011000 @
b100010100 +
b100010100 :
b100010100 =
b100010100 >
b1000110 #
1!
#700000
0!
#705000
b100011100 ,
b100011100 <
b100011100 @
b100011000 +
b100011000 :
b100011000 =
b100011000 >
b1000111 #
1!
#710000
0!
#715000
b100100000 ,
b100100000 <
b100100000 @
b100011100 +
b100011100 :
b100011100 =
b100011100 >
b1001000 #
1!
#720000
0!
#725000
b100100100 ,
b100100100 <
b100100100 @
b100100000 +
b100100000 :
b100100000 =
b100100000 >
b1001001 #
1!
#730000
0!
#735000
b100101000 ,
b100101000 <
b100101000 @
b100100100 +
b100100100 :
b100100100 =
b100100100 >
b1001010 #
1!
#740000
0!
#745000
b100101100 ,
b100101100 <
b100101100 @
b100101000 +
b100101000 :
b100101000 =
b100101000 >
b1001011 #
1!
#750000
0!
#755000
b100110000 ,
b100110000 <
b100110000 @
b100101100 +
b100101100 :
b100101100 =
b100101100 >
b1001100 #
1!
#760000
0!
#765000
b100110100 ,
b100110100 <
b100110100 @
b100110000 +
b100110000 :
b100110000 =
b100110000 >
b1001101 #
1!
#770000
0!
#775000
b100111000 ,
b100111000 <
b100111000 @
b100110100 +
b100110100 :
b100110100 =
b100110100 >
b1001110 #
1!
#780000
0!
#785000
b100111100 ,
b100111100 <
b100111100 @
b100111000 +
b100111000 :
b100111000 =
b100111000 >
b1001111 #
1!
#790000
0!
#795000
b101000000 ,
b101000000 <
b101000000 @
b100111100 +
b100111100 :
b100111100 =
b100111100 >
b1010000 #
1!
#800000
0!
#805000
b101000100 ,
b101000100 <
b101000100 @
b101000000 +
b101000000 :
b101000000 =
b101000000 >
b1010001 #
1!
#810000
0!
#815000
b101001000 ,
b101001000 <
b101001000 @
b101000100 +
b101000100 :
b101000100 =
b101000100 >
b1010010 #
1!
#820000
0!
#825000
b101001100 ,
b101001100 <
b101001100 @
b101001000 +
b101001000 :
b101001000 =
b101001000 >
b1010011 #
1!
#830000
0!
#835000
b101010000 ,
b101010000 <
b101010000 @
b101001100 +
b101001100 :
b101001100 =
b101001100 >
b1010100 #
1!
#840000
0!
#845000
b101010100 ,
b101010100 <
b101010100 @
b101010000 +
b101010000 :
b101010000 =
b101010000 >
b1010101 #
1!
#850000
0!
#855000
b101011000 ,
b101011000 <
b101011000 @
b101010100 +
b101010100 :
b101010100 =
b101010100 >
b1010110 #
1!
#860000
0!
#865000
b101011100 ,
b101011100 <
b101011100 @
b101011000 +
b101011000 :
b101011000 =
b101011000 >
b1010111 #
1!
#870000
0!
#875000
b101100000 ,
b101100000 <
b101100000 @
b101011100 +
b101011100 :
b101011100 =
b101011100 >
b1011000 #
1!
#880000
0!
#885000
b101100100 ,
b101100100 <
b101100100 @
b101100000 +
b101100000 :
b101100000 =
b101100000 >
b1011001 #
1!
#890000
0!
#895000
b101101000 ,
b101101000 <
b101101000 @
b101100100 +
b101100100 :
b101100100 =
b101100100 >
b1011010 #
1!
#900000
0!
#905000
b101101100 ,
b101101100 <
b101101100 @
b101101000 +
b101101000 :
b101101000 =
b101101000 >
b1011011 #
1!
#910000
0!
#915000
b101110000 ,
b101110000 <
b101110000 @
b101101100 +
b101101100 :
b101101100 =
b101101100 >
b1011100 #
1!
#920000
0!
#925000
b101110100 ,
b101110100 <
b101110100 @
b101110000 +
b101110000 :
b101110000 =
b101110000 >
b1011101 #
1!
#930000
0!
#935000
b101111000 ,
b101111000 <
b101111000 @
b101110100 +
b101110100 :
b101110100 =
b101110100 >
b1011110 #
1!
#940000
0!
#945000
b101111100 ,
b101111100 <
b101111100 @
b101111000 +
b101111000 :
b101111000 =
b101111000 >
b1011111 #
1!
#950000
0!
#955000
b110000000 ,
b110000000 <
b110000000 @
b101111100 +
b101111100 :
b101111100 =
b101111100 >
b1100000 #
1!
#960000
0!
#965000
b110000100 ,
b110000100 <
b110000100 @
b110000000 +
b110000000 :
b110000000 =
b110000000 >
b1100001 #
1!
#970000
0!
#975000
b110001000 ,
b110001000 <
b110001000 @
b110000100 +
b110000100 :
b110000100 =
b110000100 >
b1100010 #
1!
#980000
0!
#985000
b110001100 ,
b110001100 <
b110001100 @
b110001000 +
b110001000 :
b110001000 =
b110001000 >
b1100011 #
1!
#990000
0!
#995000
b110010000 ,
b110010000 <
b110010000 @
b110001100 +
b110001100 :
b110001100 =
b110001100 >
b1100100 #
1!
#1000000
0!
#1005000
b110010100 ,
b110010100 <
b110010100 @
b110010000 +
b110010000 :
b110010000 =
b110010000 >
b1100101 #
1!
